<?xml version="1.0" encoding="utf-8"?>
<!-- Generator: Adobe Illustrator 16.0.0, SVG Export Plug-In . SVG Version: 6.00 Build 0)  -->
<!DOCTYPE svg PUBLIC "-//W3C//DTD SVG 1.1//EN" "http://www.w3.org/Graphics/SVG/1.1/DTD/svg11.dtd">
<svg version="1.1" id="Layer_1" xmlns="http://www.w3.org/2000/svg" xmlns:xlink="http://www.w3.org/1999/xlink" x="0px" y="0px"
	 width="771.201px" height="377.567px" viewBox="37.98 55.752 771.201 377.567"
	 enable-background="new 37.98 55.752 771.201 377.567" xml:space="preserve">
<g id="boat">
</g>
<g id="apollo1">
</g>
<g id="tower">
</g>
<g id="peg1" display="none">
</g>
<g id="apollo2">
</g>
<g id="peg2" display="none">
</g>
<g id="apollo_3">
</g>
<g id="peg3" display="none">
</g>
<g id="apollo4">
</g>
<g id="peg4" display="none">
</g>
<g id="apollo5">
</g>
<g id="peg5" display="none">
	
		<image display="inline" overflow="visible" opacity="0.3" enable-background="new    " width="220" height="146" xlink:href="500E71C1.jpeg"  transform="matrix(1 0 0 1 623 -67.5664)">
	</image>
</g>
<g id="Layer_14">
	<g>
		<path fill="#FFFFFF" d="M116.163,295.475h-0.033c0,0-2.62-8.959-8.156-8.959c-5.542,0-8.161,8.959-8.161,8.959L37.98,433.318
			h16.737l15.354-34.845l6.698-15.169l30.723-69.908l31.11,69.908l6.698,15.169l15.354,34.845h17.144L116.163,295.475z"/>
		<path fill="#FFFFFF" d="M242.75,294.689c34.06,0,53.766,16.932,53.766,46.285c0,30.524-19.707,48.045-53.766,48.045h-36.038
			v43.516h-15.76V294.689H242.75z M206.712,373.852h35.447c24.809,0,39.181-11.021,39.181-32.483
			c0-20.862-14.373-31.521-39.181-31.521h-35.447V373.852z"/>
		<path fill="#FFFFFF" d="M465.823,363.6c0,38.804-31.896,69.72-72.073,69.72c-40.366,0-72.265-30.916-72.265-69.72
			c0-38.988,31.898-69.301,72.265-69.301C433.927,294.299,465.823,324.823,465.823,363.6z M337.425,363.6
			c0,30.344,25.607,54.55,56.325,54.55c30.709,0,55.923-24.206,55.923-54.55c0-30.317-25.214-54.338-55.923-54.338
			C363.032,309.262,337.425,333.281,337.425,363.6z"/>
		<path fill="#FFFFFF" d="M809.181,363.4c0,38.804-31.894,69.725-72.064,69.725c-40.375,0-72.27-30.921-72.27-69.725
			c0-38.982,31.895-69.301,72.27-69.301C777.287,294.102,809.181,324.625,809.181,363.4z M680.786,363.4
			c0,30.346,25.605,54.55,56.329,54.55c30.718,0,55.928-24.204,55.928-54.55c0-30.313-25.21-54.338-55.928-54.338
			C706.393,309.063,680.786,333.088,680.786,363.4z"/>
		<path fill="#29AAE1" d="M362.234,99.757"/>
		<path fill="#29AAE1" d="M345.647,88.755l0.245,0.045c-1.764-0.435-4.621-0.158-9.218,2.226l-15.188,12.328v7.703v195.698v6.165
			c0,0,19.296-1.023,54.225-50.335l-1.539-2.567L345.647,88.755z M329.065,292.77v-4.914V131.792v-6.146l9.288-9.827
			c6.363-4.31,7.293,0,7.293,0l16.587,136.806C340.87,291.953,329.065,292.77,329.065,292.77z"/>
		<path fill="#29AAE1" d="M524.668,129.55c0,0,0-7.32-15.411-10.402L345.893,88.8c2.228,0.548,2.706,2.226,2.706,2.226
			l27.112,171.56c0,0,12.843-8.864,85.775-1.671l105.28,1.671L524.668,129.55z M390.606,245.121v-2.054l-31.332-141.252
			l152.55,26.706l32.36,125.846L390.606,245.121z"/>
		<path fill="#29AAE1" d="M345.893,88.8l-0.245-0.045l28.523,171.263l1.539,2.567l-27.112-171.56
			C348.598,91.025,348.119,89.348,345.893,88.8z"/>
		<path fill="#29AAE1" d="M329.065,319.854c0,0,34.575-53.397,102.375-27.084c0,0,68.569,32.479,38.521,103.359l125.976-1.363
			h47.381l-20.802-109.283c0,0-0.548-23.926-55.751-22.896l-73.935-5.518l-101.696-5.396l-15.425,5.396l-54.225,55.853v13.353v4.754
			L329.065,319.854z"/>
		<polygon fill="#FFFFFF" points="477.467,60.142 461.773,55.752 493.397,405.891 509.092,404.441 505.24,362.611 		"/>
		<polygon fill="#FFFFFF" points="574.563,80.268 558.969,75.491 604.807,405.276 620.402,402.997 614.724,364.132 		"/>
		<path fill="#FFFFFF" d="M475.896,402.294c0,0,115.121-40.579,132.716-48.282c0,0,3.822,15.922-113.59,63.693l-16.832,5.645
			C478.189,423.35,471.69,424.384,475.896,402.294z"/>
		<path fill="#FFFFFF" d="M571.651,402.294c0,0,115.129-40.579,132.716-48.282c0,0,3.828,15.922-113.59,63.693l-16.827,5.645
			C573.95,423.35,567.446,424.384,571.651,402.294z"/>
		<path fill="#58595B" d="M354.399,188.013c0,0-11.562-4.598-13.614,24.459c0,0-10.049,63.433,13.614,53.602l7.835-13.448
			L354.399,188.013z"/>
		<path opacity="0.5" fill="#808285" enable-background="new    " d="M355.645,199.756c0,0-8.155-3.795-9.715,18.291
			c0,0-7.642,48.225,10.349,40.752l5.551-9.529L355.645,199.756z"/>
		<path fill="#58595B" d="M378.722,189.49l21.901,0.67c0,0,11.942-2.058,14.642,16.436c0,0,6.265,21.396,5.829,40.361l-17.138-1.034
			l-13.349-0.802L378.722,189.49z"/>
		<polygon fill="#231F20" points="382.172,205.052 405.248,205.052 406.532,208.139 382.861,208.139 		"/>
		<polygon fill="#231F20" points="383.63,212.472 407.821,212.472 409.1,215.555 384.291,215.555 		"/>
		<polygon fill="#231F20" points="385.174,220.563 410.643,220.563 411.922,223.645 385.83,223.645 		"/>
		<polygon fill="#231F20" points="387.354,229.422 412.824,229.422 414.108,232.504 388.011,232.504 		"/>
		<polygon fill="#231F20" points="389.922,239.438 415.392,239.438 416.675,242.52 390.578,242.52 		"/>
	</g>
</g>
<g id="peg6">
</g>
</svg>
